<svg width="22" height="20" viewBox="0 0 22 20" fill="none" xmlns="http://www.w3.org/2000/svg">
<path fill-rule="evenodd" clip-rule="evenodd" d="M6.25 2.5C4.1851 2.5 2.5 4.18673 2.5 6.28125C2.5 7.61155 3.28051 8.98355 4.51203 10.4087C6.51855 12.7306 8.84195 15.157 11 17.1486C13.158 15.157 15.4815 12.7306 17.488 10.4087C18.7195 8.98355 19.5 7.61155 19.5 6.28125C19.5 4.18673 17.8149 2.5 15.75 2.5C14.8578 2.5 14.0401 2.81294 13.3957 3.33785C12.7157 3.89171 12.3584 4.28962 12.1598 4.53348C12.1085 4.59641 12.0653 4.65221 12.0257 4.70392C12.0189 4.71293 12.0114 4.72267 12.0037 4.73287C11.9727 4.77353 11.936 4.82168 11.9045 4.86087C11.8705 4.90318 11.7937 4.99822 11.69 5.08485C11.5854 5.17215 11.3356 5.35099 10.9692 5.34379C10.6073 5.33667 10.3669 5.15203 10.2697 5.06679C10.1711 4.98026 10.0976 4.88629 10.065 4.84434C10.0131 4.77758 9.98542 4.73975 9.95933 4.70405C9.92577 4.65814 9.89478 4.61576 9.81809 4.51988C9.62494 4.27842 9.27508 3.88423 8.60428 3.33785C7.95985 2.81294 7.14219 2.5 6.25 2.5ZM0.5 6.28125C0.5 3.09455 3.06819 0.5 6.25 0.5C7.62017 0.5 8.88018 0.98308 9.86735 1.78715C10.3635 2.19128 10.7262 2.53866 10.9972 2.82886C11.2699 2.54005 11.6346 2.19285 12.1326 1.78715C13.1198 0.98308 14.3798 0.5 15.75 0.5C18.9318 0.5 21.5 3.09455 21.5 6.28125C21.5 8.3647 20.304 10.2088 19.0012 11.7163C16.8442 14.2125 14.3246 16.8321 12.0045 18.9407C11.4346 19.4586 10.5654 19.4586 9.99551 18.9407C7.67538 16.8321 5.15585 14.2125 2.99878 11.7163C1.696 10.2088 0.5 8.3647 0.5 6.28125Z" fill="#2B2D33"/>
<path d="M2.5 6.28125C2.5 4.18673 4.1851 2.5 6.25 2.5C7.14219 2.5 7.95985 2.81294 8.60428 3.33785C9.27508 3.88423 9.62494 4.27842 9.81809 4.51988C9.89478 4.61576 9.92577 4.65814 9.95933 4.70405C9.98542 4.73975 10.0131 4.77758 10.065 4.84434C10.0976 4.88629 10.1711 4.98026 10.2697 5.06679C10.3669 5.15203 10.6073 5.33667 10.9692 5.34379C11.3356 5.35099 11.5854 5.17215 11.69 5.08485C11.7937 4.99822 11.8705 4.90318 11.9045 4.86087C11.936 4.82168 11.9727 4.77353 12.0037 4.73287L12.0257 4.70392C12.0653 4.65221 12.1085 4.59641 12.1598 4.53348C12.3584 4.28962 12.7157 3.89171 13.3957 3.33785C14.0401 2.81294 14.8578 2.5 15.75 2.5C17.8149 2.5 19.5 4.18673 19.5 6.28125C19.5 7.61155 18.7195 8.98355 17.488 10.4087C15.4815 12.7306 13.158 15.157 11 17.1486C8.84195 15.157 6.51855 12.7306 4.51203 10.4087C3.28051 8.98355 2.5 7.61155 2.5 6.28125Z" fill="#2B2D33"/>
</svg>
